{
  "proUsersId":["db547b25b28a4f435c2abaa695009646f710f95de8a9eb8e718cae5ba07c869b","0f74858aac1c389ed81c026934878193144204f1d482bc3d1c33822a1dedbfe0","68f629dab2b11d36398923b618ac7959a50cbc2e6b82d0249d2c690172ff4633","370d397daf2e3b50c4ee5999a747651ae9023854e42f6e3bf95a38a3dd849d14"],
    "newVersion": "2.2.1",
    "proVersion": "https://play.google.com/store/apps/details?id=oben.soft.team.unfollowersPremium",
    "freeVersion": "https://play.google.com/store/apps/details?id=oben.soft.team.unfollowers",
    "pro": {
        "localVersion":"2.2.1",
        "playstoreURL": "https://play.google.com/store/apps/details?id=oben.soft.team.unfollowersPremium",
        "urlCount": "https://caf9.short.gy/RaRnuh"
    },
    "free": {
        "localVersion":"2.2.1",
        "playstoreURL": "https://play.google.com/store/apps/details?id=oben.soft.team.unfollowersPremium",
        "urlCount": "https://caf9.short.gy/ljPE3s",
        "adsPing":"https://caf9.short.gy/O7A8wz",
        "adsDiffPring":"https://webhook.site/bf608fd0-7300-4829-b336-b1896011582e"
    },
    "chinasBrand":[
            "huaqin", "xiaomi", "zte", "vivo",
            "oppo", "oneplus", "realme", "tcl", "oukitel", "amoi", "bbk", "coolpad",
            "cubot", "doogee", "gfive", "haier", "hisense", "honor", "huawei", "itel", "iqoo",
            "leeco", "meitu", "meizu", "ningbo", "smartisan", "techno mobile", "umidigi",
            "vsun", "wasam", "unihertz"],
    "acceptedBrowsers":[
            "com.sec.android.app.sbrowser",
            "com.android.chrome",
            "org.mozilla.",
            "com.brave.",
            "com.opera.",
            "com.duckduckgo.",
            "com.microsoft.",
            "com.transsion."],
    "urlBrowsers": "https://play.google.com/store/search?q=browser&c=apps"
}
